<?xml version="1.0" ?>
<robot name="pioneer" xmlns:xacro="http://www.ros.org/wiki/xacro">
	
	<material name="blue">
		<color rgba="0 0 1 1"/>
	</material>
	
	<xacro:property name="lrf_radius" value="0.051"/>
	<xacro:property name="lrf_height" value="0.152"/>
	<xacro:property name="lrf_height_neg" value="0.0793"/>
	<xacro:property name="lrf_center_distance" value="0.0735"/>
	
	<xacro:property name="lrf_scan_height" value="0.1157"/>
	
	<xacro:macro name="lrf" params="name laser_name">
	
		<link name="${name}">
			<visual>
				<geometry>
					<cylinder radius="${lrf_radius}" length="${lrf_height}"/>
				</geometry>
				<material name="blue"/>
				<origin rpy="0 0 0" xyz="${lrf_center_distance} 0 ${(lrf_height - 2 * lrf_height_neg) / 2}"/>
			</visual>
		</link>
		
		<link name="${laser_name}"/>
		
		<joint name="${laser_name}_joint" type="fixed">
			<origin rpy="0 0 -${pi / 2}" xyz="${lrf_center_distance} 0 ${(lrf_scan_height - lrf_height_neg) / 2}"/>
			<parent link="${name}"/>
			<child link="${laser_name}"/>
		</joint>
		
	</xacro:macro>
	
</robot>
