<?xml version="1.0" ?>
<robot name="pioneer" xmlns:xacro="http://www.ros.org/wiki/xacro">

	<material name="red">
		<color rgba="1 0 0 1"/>
	</material>
	<material name="black">
		<color rgba="0.2 0.2 0.2 1"/>
	</material>
	<material name="gray">
		<color rgba="0.5 0.5 0.5	 1"/>
	</material>
	
	<xacro:property name="pi" value="3.1415"/>
	
	<xacro:property name="wheel_radius" value="0.0925"/>
	<xacro:property name="wheel_length" value="0.05"/>
	<xacro:property name="wheelbase" value="0.27"/>
	<xacro:property name="track" value="0.40"/>
	
	<xacro:property name="base_length" value="0.40"/>
	<xacro:property name="base_width" value="0.26"/>
	<xacro:property name="base_height" value="0.193"/>
	<xacro:property name="base_height_from_earth" value="0.26"/><!-- TODO move to another place? -->
	
	<xacro:property name="bar_width" value="0.03"/>
	<xacro:property name="vertical_bar_height" value="1.33"/>
	
	<xacro:macro name="wheel" params="src_frame name right forward">
		<link name="wheel_${name}">
			<visual>
				<geometry>
					<cylinder radius="${wheel_radius}" length="${wheel_length}"/>
				</geometry>
				<material name="black"/>
				<origin rpy="${pi/2} 0 0" xyz="0 0 0"/>
			</visual>
		</link>
		<joint name="wheel_${name}_joint" type="fixed">
			<origin rpy="0 0 0" xyz="${wheelbase / 2 * forward} ${track / 2 * right} ${wheel_radius - base_height_from_earth}"/>
			<parent link="${src_frame}"/>
			<child link="wheel_${name}"/>
		</joint>
	</xacro:macro>
	
	<xacro:macro name="vertical_bar" params="src_frame name right">
		<link name="vertical_bar_${name}">
			<visual>
				<geometry>
					<box size="${bar_width} ${bar_width} ${vertical_bar_height}"/>
				</geometry>
				<material name="gray"/>
				<origin rpy="0 0 0" xyz="0 0 ${vertical_bar_height / 2}"/>
			</visual>
		</link>
		<joint name="vertical_bar_${name}_joint" type="fixed">
			<origin rpy="0 0 0" xyz="0 ${(base_width / 2 + bar_width / 2) * right} ${- base_height}"/>
			<parent link="${src_frame}"/>
			<child link="vertical_bar_${name}"/>
		</joint>
	</xacro:macro>
	
	<xacro:macro name="horizontal_bar" params="src_frame name length origin_x origin_z rpy">
		<link name="horizontal_bar_${name}">
			<visual>
				<geometry>
					<box size="${bar_width} ${length} ${bar_width}"/>
				</geometry>
				<material name="gray"/>
				<origin rpy="0 0 0" xyz="0 0 0"/>
			</visual>
		</link>
		<joint name="horizontal_bar_${name}_joint" type="fixed">
			<origin rpy="${rpy}" xyz="${origin_x} 0 ${origin_z}"/>
			<parent link="${src_frame}"/>
			<child link="horizontal_bar_${name}"/>
		</joint>
	</xacro:macro>
	
	<xacro:macro name="horizontal_bar_with_object" params="src_frame bar_length bar_origin_x bar_origin_z over object_joint_y right child_link rpy">
		<xacro:horizontal_bar src_frame="${src_frame}" name="${child_link}" length="${bar_length}" origin_x="${bar_origin_x}" origin_z="${bar_origin_z}" rpy="${rpy}"/>
		<joint name="${child_link}_joint" type="fixed">
			<origin rpy="0 0 0" xyz="${right * bar_width / 2} ${object_joint_y} ${over * bar_width / 2}"/>
			<parent link="horizontal_bar_${child_link}"/>
			<child link="${child_link}"/>
		</joint>
	</xacro:macro>
	
	<xacro:include filename="$(find pioneer_model_gloria)/urdf/lrf.xacro" />
	<xacro:include filename="$(find pioneer_model_gloria)/urdf/kinect.xacro" />
	<xacro:include filename="$(find pioneer_model_gloria)/urdf/configurable_properties.xacro" />
	
	<!-- Pioneer -->
	
	<link name="base_link"/>
	
	<link name="chassis">
		<visual>
			<geometry>
				<box size="${base_length} ${base_width} ${base_height}"/>
			</geometry>
			<material name="red"/>
			<origin rpy="0 0 0" xyz="0 0 -${base_height / 2}"/>
		</visual>
	</link>
	
	<joint name="$chassis_joint" type="fixed">
		<origin rpy="0 0 0" xyz="0 0 ${base_height_from_earth}"/>
		<parent link="base_link"/>
		<child link="chassis"/>
	</joint>
	
	<xacro:wheel src_frame="chassis" name="dx_f" right="1" forward="1"/>
	<xacro:wheel src_frame="chassis" name="dx_r" right="1" forward="-1"/>
	<xacro:wheel src_frame="chassis" name="sx_f" right="-1" forward="1"/>
	<xacro:wheel src_frame="chassis" name="sx_r" right="-1" forward="-1"/>
	
	<xacro:vertical_bar src_frame="chassis" name="dx" right="1"/>
	<xacro:vertical_bar src_frame="chassis" name="sx" right="-1"/>
	
	<xacro:lrf name="lrf" laser_name="laser"/>
	<xacro:horizontal_bar_with_object src_frame="chassis" bar_length="${base_width + bar_width}" bar_origin_x="${lrf_bar_x}" bar_origin_z="${lrf_bar_z}" rpy="0.0 0.0 0.0" over="0" right="1" object_joint_y="${lrf_y}" child_link="lrf"/>
	
	<xacro:kinect name="kinect" frame_name="openni_camera"/>
	<xacro:horizontal_bar_with_object src_frame="chassis" bar_length="${base_width}" bar_origin_x="${kinect_bar_x}" bar_origin_z="${kinect_bar_z}" rpy="${kinect_roll} ${kinect_pitch} ${kinect_yaw}" over="-1" right="0" object_joint_y="${kinect_y}" child_link="kinect"/>
	
	<!--xacro:horizontal_bar name="a" length="${base_width}" origin_x="0" origin_z="0.8"/-->
	
</robot>

