digraph G {
"base_link" -> "back_sonar"[label="Broadcaster: /rob_st_pub\nAverage rate: 10000.000 Hz\nMost recent transform: 0.000 ( 1550225348.754 sec old)\nBuffer length: 0.000 sec\n"];
"odom" -> "base_link"[label="Broadcaster: /cartographer_node\nAverage rate: 209.832 Hz\nMost recent transform: 1550225348.753 ( 0.001 sec old)\nBuffer length: 4.980 sec\n"];
"base_link" -> "front_sonar"[label="Broadcaster: /rob_st_pub\nAverage rate: 10000.000 Hz\nMost recent transform: 0.000 ( 1550225348.754 sec old)\nBuffer length: 0.000 sec\n"];
"base_link" -> "p3at_front_left_axle"[label="Broadcaster: /rob_st_pub\nAverage rate: 10000.000 Hz\nMost recent transform: 0.000 ( 1550225348.754 sec old)\nBuffer length: 0.000 sec\n"];
"p3at_front_left_axle" -> "p3at_front_left_hub"[label="Broadcaster: /rob_st_pub\nAverage rate: 10000.000 Hz\nMost recent transform: 0.000 ( 1550225348.754 sec old)\nBuffer length: 0.000 sec\n"];
"base_link" -> "p3at_front_right_axle"[label="Broadcaster: /rob_st_pub\nAverage rate: 10000.000 Hz\nMost recent transform: 0.000 ( 1550225348.754 sec old)\nBuffer length: 0.000 sec\n"];
"p3at_front_right_axle" -> "p3at_front_right_hub"[label="Broadcaster: /rob_st_pub\nAverage rate: 10000.000 Hz\nMost recent transform: 0.000 ( 1550225348.754 sec old)\nBuffer length: 0.000 sec\n"];
"base_link" -> "top_plate"[label="Broadcaster: /rob_st_pub\nAverage rate: 10000.000 Hz\nMost recent transform: 0.000 ( 1550225348.754 sec old)\nBuffer length: 0.000 sec\n"];
"base_link" -> "p3at_back_left_axle"[label="Broadcaster: /rob_st_pub\nAverage rate: 10000.000 Hz\nMost recent transform: 0.000 ( 1550225348.754 sec old)\nBuffer length: 0.000 sec\n"];
"base_link" -> "p3at_back_right_axle"[label="Broadcaster: /rob_st_pub\nAverage rate: 10000.000 Hz\nMost recent transform: 0.000 ( 1550225348.754 sec old)\nBuffer length: 0.000 sec\n"];
"base_link" -> "horizontal_bar_kinect"[label="Broadcaster: /rob_st_pub\nAverage rate: 10000.000 Hz\nMost recent transform: 0.000 ( 1550225348.754 sec old)\nBuffer length: 0.000 sec\n"];
"base_link" -> "imu"[label="Broadcaster: /rob_st_pub\nAverage rate: 10000.000 Hz\nMost recent transform: 0.000 ( 1550225348.754 sec old)\nBuffer length: 0.000 sec\n"];
"horizontal_bar_kinect" -> "kinect_link"[label="Broadcaster: /rob_st_pub\nAverage rate: 10000.000 Hz\nMost recent transform: 0.000 ( 1550225348.754 sec old)\nBuffer length: 0.000 sec\n"];
"base_link" -> "laser_scan_link"[label="Broadcaster: /rob_st_pub\nAverage rate: 10000.000 Hz\nMost recent transform: 0.000 ( 1550225348.754 sec old)\nBuffer length: 0.000 sec\n"];
"kinect_link" -> "openni_camera"[label="Broadcaster: /rob_st_pub\nAverage rate: 10000.000 Hz\nMost recent transform: 0.000 ( 1550225348.754 sec old)\nBuffer length: 0.000 sec\n"];
"p3at_back_left_axle" -> "p3at_back_left_hub"[label="Broadcaster: /rob_st_pub\nAverage rate: 10000.000 Hz\nMost recent transform: 0.000 ( 1550225348.754 sec old)\nBuffer length: 0.000 sec\n"];
"p3at_back_left_hub" -> "p3at_back_left_wheel"[label="Broadcaster: /rob_st_pub\nAverage rate: 10000.000 Hz\nMost recent transform: 0.000 ( 1550225348.754 sec old)\nBuffer length: 0.000 sec\n"];
"p3at_back_right_axle" -> "p3at_back_right_hub"[label="Broadcaster: /rob_st_pub\nAverage rate: 10000.000 Hz\nMost recent transform: 0.000 ( 1550225348.754 sec old)\nBuffer length: 0.000 sec\n"];
"p3at_back_right_hub" -> "p3at_back_right_wheel"[label="Broadcaster: /rob_st_pub\nAverage rate: 10000.000 Hz\nMost recent transform: 0.000 ( 1550225348.754 sec old)\nBuffer length: 0.000 sec\n"];
"p3at_front_left_hub" -> "p3at_front_left_wheel"[label="Broadcaster: /rob_st_pub\nAverage rate: 10000.000 Hz\nMost recent transform: 0.000 ( 1550225348.754 sec old)\nBuffer length: 0.000 sec\n"];
"p3at_front_right_hub" -> "p3at_front_right_wheel"[label="Broadcaster: /rob_st_pub\nAverage rate: 10000.000 Hz\nMost recent transform: 0.000 ( 1550225348.754 sec old)\nBuffer length: 0.000 sec\n"];
"base_link" -> "vertical_bar_dx"[label="Broadcaster: /rob_st_pub\nAverage rate: 10000.000 Hz\nMost recent transform: 0.000 ( 1550225348.754 sec old)\nBuffer length: 0.000 sec\n"];
"base_link" -> "vertical_bar_sx"[label="Broadcaster: /rob_st_pub\nAverage rate: 10000.000 Hz\nMost recent transform: 0.000 ( 1550225348.754 sec old)\nBuffer length: 0.000 sec\n"];
"map" -> "odom"[label="Broadcaster: /cartographer_node\nAverage rate: 199.792 Hz\nMost recent transform: 1550225348.753 ( 0.001 sec old)\nBuffer length: 4.980 sec\n"];
"kinect2_link" -> "kinect2_rgb_optical_frame"[label="Broadcaster: /kinect2\nAverage rate: 99.265 Hz\nMost recent transform: 1550225348.745 ( 0.009 sec old)\nBuffer length: 4.966 sec\n"];
"kinect_link" -> "kinect2_link"[label="Broadcaster: /kinect_2_kinect\nAverage rate: 10.194 Hz\nMost recent transform: 1550225348.845 ( -0.091 sec old)\nBuffer length: 4.905 sec\n"];
"kinect2_rgb_optical_frame" -> "kinect2_ir_optical_frame"[label="Broadcaster: /kinect2\nAverage rate: 99.265 Hz\nMost recent transform: 1550225348.745 ( 0.009 sec old)\nBuffer length: 4.966 sec\n"];
edge [style=invis];
 subgraph cluster_legend { style=bold; color=black; label ="view_frames Result";
"Recorded at time: 1550225348.754"[ shape=plaintext ] ;
 }->"map";
}